Lab 7: Functions + Fish
…
9. Use your rescale_column() function to rescale both the length and weight columns.

Warning

I expect that you carry out this process by calling the rescale_column() function only ONE time!

Code

rescale_column(fish, c(weight, length))

# A tibble: 18,352 × 8
    trip  mark length  weight  year section  species length_scaled
   <dbl> <dbl>  <dbl>   <dbl> <dbl> <chr>    <chr>           <dbl>
 1     1     0  0.280 0.0374   1989 Johnsrud RBT             0.280
 2     1     0  0.280 0.0406   1989 Johnsrud RBT             0.280
 3     1     0  0.277 0.0524   1989 Johnsrud RBT             0.277
 4     1     0  0.315 0.0588   1989 Johnsrud RBT             0.315
 5     1     0  0.305 0.0641   1989 Johnsrud RBT             0.305
 6     1     0  0.358 0.0812   1989 Johnsrud RBT             0.358
 7     1     0  0.261 0.0363   1989 Johnsrud RBT             0.261
 8     1     0  0.148 0.00855  1989 Johnsrud RBT             0.148
 9     1     0  0.203 0.0171   1989 Johnsrud RBT             0.203
10     1     0  0.145 0.00748  1989 Johnsrud RBT             0.145
# ℹ 18,342 more rows
…
